{
  "architecture": "x86-64",
  "install": [
    {
      "source": "https://github.com/yyuu/pyenv.git",
      "id": "d09a3869-9f24-306e-818e-e20aad302778",
      "type": "git",
      "to": "pyenv",
      "name": "pyenv Source Code",
      "revision": "180ff6c9557e5bed966f37fa50f447dc162e75a1"
    },
    {
      "to": "sst-5.0.1.tar.gz",
      "name": "SST 5.0.1 Source",
      "type": "file",
      "source": "https://github.com/sstsimulator/sst-downloads/releases/download/SSTReleases/sst-5.0.1.tar.gz",
      "id": "57369380-2a59-3a1f-aea9-296fe0b55227",
      "revision": "1577de95dba2fec42d14e4ea35c85a209f921a9507ca75d2a0cc83da9af01c91"
    },
    {
      "to": "openmpi-1.8.tar.gz",
      "name": "OpenMPI 1.8 Source",
      "type": "file",
      "source": "http://www.open-mpi.org/software/ompi/v1.8/downloads/openmpi-1.8.tar.gz",
      "id": "6e4f0c86-5ca7-3b93-aea5-11b119347825",
      "revision": "108ce269d8a954e2f847e0ae43338697a574803d3d1590b26a491882f23a5db9"
    },
    {
      "to": "boost_1_56_0.tar.gz",
      "name": "Boost 1.56.0 Source",
      "type": "file",
      "source": "http://downloads.sourceforge.net/project/boost/boost/1.56.0/boost_1_56_0.tar.gz",
      "id": "7a8cacc6-90c9-38b1-87a6-26466cc38215",
      "revision": "f53024506c3b3a6f96520054ec82a834772720908aed6050b30f4f56722e7701"
    }
  ],
  "build": {
    "script": "build.sh",
    "language": "bash"
  },
  "id": "7b83e166-026a-11e6-ba89-0800276d4caa",
  "type": "simulator",
  "configurations": [
    {
      "name": "General",
      "type": "application/json",
      "schema": "options.json",
      "file": "input.json"
    }
  ],
  "environment": "ubuntu:14.04",
  "outputs": [
    {
      "subtype": "portuno",
      "type": "text/tab-separated-values",
      "file": "latest.tsv"
    }
  ],
  "name": "Portuno",
  "run": {
    "version": "3.3.0",
    "script": "launch.py",
    "language": "python"
  }
}